…
      $drugs$patents
      # A tibble: 4 × 6
        number  country       approved   expires    pediatric_extension drugbank_id
        <chr>   <chr>         <chr>      <chr>      <chr>               <chr>      
      1 5196404 United States 1993-03-23 2010-05-23 false               DB00006    
      2 2065150 Canada        1999-12-14 2010-08-17 false               DB00006    
      3 7598343 United States 2009-10-06 2029-01-27 true                DB00006    
      4 7582727 United States 2009-09-01 2029-01-27 true                DB00006    
      
      $drugs$drug_interactions
      # A tibble: 639 × 4
         target_drugbank_id name                       description         drugbank_id
         <chr>              <chr>                      <chr>               <chr>      
       1 DB06605            Apixaban                   Apixaban may incre… DB00006    
       2 DB06695            Dabigatran etexilate       Dabigatran etexila… DB00006    
       3 DB01254            Dasatinib                  The risk or severi… DB00006    
       4 DB01609            Deferasirox                The risk or severi… DB00006    
       5 DB01586            Ursodeoxycholic acid       The risk or severi… DB00006    
       6 DB02123            Glycochenodeoxycholic Acid The risk or severi… DB00006    
       7 DB02659            Cholic Acid                The risk or severi… DB00006    
       8 DB02691            Glycocholic acid           The risk or severi… DB00006    
       9 DB03619            Deoxycholic acid           The risk or severi… DB00006    
      10 DB04348            Taurocholic acid           The risk or severi… DB00006    
      # ℹ 629 more rows
      
      $drugs$sequences
      # A tibble: 0 × 0
      
      $drugs$calculated_properties
      # A tibble: 26 × 4
         kind                   value                               source drugbank_id
         <chr>                  <chr>                               <chr>  <chr>      
       1 logP                   -0.76                               ALOGPS DB00006    
       2 logS                   -4.7                                ALOGPS DB00006    
       3 Water Solubility       4.64e-02 g/l                        ALOGPS DB00006    
       4 logP                   -14                                 ChemA… DB00006    
       5 IUPAC Name             (4S)-4-[(2S)-2-[(2S)-2-[(2S)-2-{2-… ChemA… DB00006    
       6 Traditional IUPAC Name bivalirudin                         ChemA… DB00006    
       7 Molecular Weight       2180.2853                           ChemA… DB00006    
       8 Monoisotopic Weight    2178.985813062                      ChemA… DB00006    
       9 SMILES                 CC[C@H](C)[C@H](NC(=O)[C@H](CCC(O)… ChemA… DB00006    
      10 Molecular Formula      C98H138N24O33                       ChemA… DB00006    
      # ℹ 16 more rows
…
      $drugs$external_links
      # A tibble: 2 × 3
        resource  url                                            drugbank_id
        <chr>     <chr>                                          <chr>      
      1 RxList    http://www.rxlist.com/cgi/generic/angiomax.htm DB00006    
      2 Drugs.com http://www.drugs.com/cdi/bivalirudin.html      DB00006    
      
      
      $salts
      # A tibble: 0 × 0
      
      $products
      # A tibble: 34 × 19
         name   labeller ndc_id ndc_product_code dpd_id ema_product_code ema_ma_number
         <chr>  <chr>    <chr>  <chr>            <chr>  <chr>            <chr>        
       1 Angio… Cardina… ""     "55154-2275"     ""     ""               ""           
       2 Angio… The Med… ""     "65293-001"      ""     ""               ""           
       3 Angio… Sandoz … ""     "0781-3447"      ""     ""               ""           
       4 Angio… Sandoz … ""     ""               "0224… ""               ""           
       5 Angio… MAIA Ph… ""     "70511-141"      ""     ""               ""           
       6 Angiox The Med… ""     ""               ""     "EMEA/H/C/00056… "EU/1/04/289…
       7 Bival… Accord … ""     "16729-275"      ""     ""               ""           
       8 Bival… Cipla U… ""     "69097-601"      ""     ""               ""           
       9 Bival… Mylan I… ""     "67457-256"      ""     ""               ""           
      10 Bival… Eugia U… ""     "55150-210"      ""     ""               ""           
      # ℹ 24 more rows
      # ℹ 12 more variables: started_marketing_on <chr>, ended_marketing_on <chr>,
      #   dosage_form <chr>, strength <chr>, route <chr>,
      #   fda_application_number <chr>, generic <chr>, over_the_counter <chr>,
      #   approved <chr>, country <chr>, source <chr>, drugbank_id <chr>
…
      $cett$enzymes$polypeptides$synonyms
      # A tibble: 2 × 2
        synonym  enzyme_id
        <chr>    <chr>    
      1 1.11.2.2 BE0001075
      2 MPO      BE0001075
      
      $cett$enzymes$polypeptides$pfams
      # A tibble: 1 × 3
        identifier name          enzyme_id
        <chr>      <chr>         <chr>    
      1 PF03098    An_peroxidase BE0001075
      
      $cett$enzymes$polypeptides$go
      # A tibble: 24 × 3
         category  description           enzyme_id
         <chr>     <chr>                 <chr>    
       1 component azurophil granule     BE0001075
       2 component extracellular exosome BE0001075
       3 component extracellular space   BE0001075
       4 component lysosome              BE0001075
       5 component mitochondrion         BE0001075
       6 component nucleus               BE0001075
       7 component secretory granule     BE0001075
       8 function  chromatin binding     BE0001075
       9 function  heme binding          BE0001075
      10 function  heparin binding       BE0001075
      # ℹ 14 more rows
…
      $cett$targets$polypeptides$pfams
      # A tibble: 4 × 3
        identifier name           target_id
        <chr>      <chr>          <chr>    
      1 PF00594    Gla            BE0000048
      2 PF00051    Kringle        BE0000048
      3 PF00089    Trypsin        BE0000048
      4 PF09396    Thrombin_light BE0000048
      
      $cett$targets$polypeptides$go
      # A tibble: 46 × 3
         category  description                 target_id
         <chr>     <chr>                       <chr>    
       1 component blood microparticle         BE0000048
       2 component cytosol                     BE0000048
       3 component endoplasmic reticulum lumen BE0000048
       4 component extracellular exosome       BE0000048
       5 component extracellular matrix        BE0000048
       6 component extracellular region        BE0000048
       7 component extracellular space         BE0000048
       8 component Golgi lumen                 BE0000048
       9 component plasma membrane             BE0000048
      10 function  calcium ion binding         BE0000048
      # ℹ 36 more rows
…
